<?xml version="1.0" encoding="UTF-8" standalone="no"?>
<svg
   xmlns:dc="http://purl.org/dc/elements/1.1/"
   xmlns:cc="http://creativecommons.org/ns#"
   xmlns:rdf="http://www.w3.org/1999/02/22-rdf-syntax-ns#"
   xmlns:svg="http://www.w3.org/2000/svg"
   xmlns="http://www.w3.org/2000/svg"
   xmlns:sodipodi="http://sodipodi.sourceforge.net/DTD/sodipodi-0.dtd"
   xmlns:inkscape="http://www.inkscape.org/namespaces/inkscape"
   sodipodi:docname="blog.svg"
   inkscape:version="1.0 (1.0+r73+1)"
   id="svg4926"
   version="1.1"
   viewBox="0 0 35.075569 33.567902"
   height="33.567902mm"
   width="35.075569mm">
  <defs
     id="defs4920" />
  <sodipodi:namedview
     inkscape:window-maximized="0"
     inkscape:window-y="27"
     inkscape:window-x="63"
     inkscape:window-height="937"
     inkscape:window-width="1348"
     showgrid="false"
     inkscape:document-rotation="0"
     inkscape:current-layer="layer2"
     inkscape:document-units="mm"
     inkscape:cy="89.06797"
     inkscape:cx="49.611244"
     inkscape:zoom="2.8"
     inkscape:pageshadow="2"
     inkscape:pageopacity="0.0"
     borderopacity="1.0"
     bordercolor="#666666"
     pagecolor="#ffffff"
     id="base"
     inkscape:showpageshadow="false"
     fit-margin-top="10"
     fit-margin-right="10"
     fit-margin-bottom="10"
     fit-margin-left="10" />
  <metadata
     id="metadata4923">
    <rdf:RDF>
      <cc:Work
         rdf:about="">
        <dc:format>image/svg+xml</dc:format>
        <dc:type
           rdf:resource="http://purl.org/dc/dcmitype/StillImage" />
        <dc:title />
      </cc:Work>
    </rdf:RDF>
  </metadata>
  <g
     inkscape:groupmode="layer"
     id="layer2"
     inkscape:label="0"
     style="display:inline;opacity:1"
     transform="translate(-124.94188,-109.31992)">
    <rect
       style="opacity:1;fill:#e4e4e4;fill-opacity:1;stroke-width:1.095"
       id="rect866"
       width="29.842924"
       height="29.842924"
       x="127.5582"
       y="111.18241" />
    <g
       id="g887"
       transform="translate(48.063015,0.9937)">
      <path
         id="path4802-1"
         style="fill:#838383;fill-opacity:1;stroke-width:0.921697"
         d="m 96.75197,121.66832 c -3.78617,0 -7.90887,2.76 -9.04056,7.4855 -0.2226,0.9295 -0.83255,1.5037 -0.83255,2.2483 0,0.1742 0.008,0.3361 0.0205,0.492 h 15.04807 c 0.004,-0.1393 0.007,-0.2847 0.007,-0.4384 0,-0.5952 -1.06183,-1.2551 -1.1579,-1.9762 -0.63524,-4.7673 -0.10873,-7.8112 -4.044438,-7.8112 z" />
      <ellipse
         style="fill:#a9a9a9;fill-opacity:1;stroke-width:0.921697"
         id="path4809-3"
         cx="91.293098"
         cy="127.14094"
         rx="1.4123837"
         ry="2.2373557" />
      <ellipse
         ry="1.6364019"
         rx="1.0330174"
         cy="126.85236"
         cx="88.662773"
         id="path4809-1-5"
         style="fill:#a9a9a9;fill-opacity:1;stroke-width:0.674129" />
    </g>
  </g>
  <g
     style="display:inline;opacity:1"
     id="layer1"
     inkscape:groupmode="layer"
     inkscape:label="1"
     transform="translate(-124.94188,-109.31992)">
    <rect
       y="111.18241"
       x="127.5582"
       height="29.842924"
       width="29.842924"
       id="rect864"
       style="fill:#e4e4e4;fill-opacity:1;stroke-width:1.095" />
    <path
       id="path4802-1-9"
       style="fill:#838383;fill-opacity:1;stroke-width:0.921697"
       d="m 140.5027,122.66202 c -3.78617,0 -3.59659,2.76 -4.72828,7.4855 -0.2226,0.9295 -0.83255,1.5037 -0.83255,2.2483 0,0.1742 0.008,0.3361 0.0205,0.492 h 15.04807 c 0.004,-0.1393 0.007,-0.2847 0.007,-0.4384 0,-0.5952 -5.37411,-1.2551 -5.47018,-1.9762 -0.63524,-4.7673 -0.10873,-7.8112 -4.04444,-7.8112 z"
       sodipodi:nodetypes="sssccssss" />
    <ellipse
       style="fill:#a9a9a9;fill-opacity:1;stroke-width:0.921697"
       id="path4809-3-3"
       cx="139.35611"
       cy="126.38651"
       rx="1.4123837"
       ry="2.2373557" />
    <ellipse
       ry="1.6364019"
       rx="1.0330174"
       cy="126.09792"
       cx="136.72578"
       id="path4809-1-5-4"
       style="fill:#a9a9a9;fill-opacity:1;stroke-width:0.674129" />
  </g>
  <g
     transform="translate(-124.94188,-109.31992)"
     inkscape:label="2"
     inkscape:groupmode="layer"
     id="g981"
     style="display:none;opacity:1">
    <rect
       style="fill:#e4e4e4;fill-opacity:1;stroke-width:1.095"
       id="rect973"
       width="29.842924"
       height="29.842924"
       x="127.5582"
       y="111.18241" />
    <path
       sodipodi:nodetypes="sssccssss"
       d="m 137.26982,122.66202 c -3.78617,0 -3.59659,2.76 -4.72828,7.4855 -0.2226,0.9295 -0.83255,1.5037 -0.83255,2.2483 0,0.1742 0.008,0.3361 0.0205,0.492 h 15.04807 c 0.004,-0.1393 0.007,-0.2847 0.007,-0.4384 0,-0.5952 -5.37411,-1.2551 -5.47018,-1.9762 -0.63524,-4.7673 -0.10873,-7.8112 -4.04444,-7.8112 z"
       style="fill:#838383;fill-opacity:1;stroke-width:0.921697"
       id="path975" />
    <ellipse
       ry="2.2373557"
       rx="1.4123837"
       cy="126.38651"
       cx="136.12323"
       id="ellipse977"
       style="fill:#a9a9a9;fill-opacity:1;stroke-width:0.921697" />
    <ellipse
       style="fill:#a9a9a9;fill-opacity:1;stroke-width:0.674129"
       id="ellipse979"
       cx="133.4929"
       cy="126.09792"
       rx="1.0330174"
       ry="1.6364019" />
  </g>
  <g
     transform="translate(-124.94188,-109.31992)"
     inkscape:label="Copie de Calque 1"
     inkscape:groupmode="layer"
     id="g968"
     style="display:none;opacity:1">
    <rect
       style="fill:#e4e4e4;fill-opacity:1;stroke-width:1.095"
       id="rect958"
       width="29.842924"
       height="29.842924"
       x="127.5582"
       y="111.18241" />
    <g
       transform="translate(67.523955,0.7923)"
       id="g966">
      <path
         id="path960"
         style="fill:#838383;fill-opacity:1;stroke-width:0.921697"
         d="m 72.978749,121.86972 c -3.786169,0 -3.596589,2.76 -4.728279,7.4855 -0.2226,0.9295 -0.83255,1.5037 -0.83255,2.2483 0,0.1742 0.008,0.3361 0.0205,0.492 h 15.04807 c 0.004,-0.1393 0.007,-0.2847 0.007,-0.4384 0,-0.5952 -5.374111,-1.2551 -5.47018,-1.9762 -0.63524,-4.7673 -0.10873,-7.8112 -4.04444,-7.8112 z"
         sodipodi:nodetypes="sssccssss" />
      <ellipse
         style="fill:#a9a9a9;fill-opacity:1;stroke-width:0.921697"
         id="ellipse962"
         cx="71.832153"
         cy="127.34223"
         rx="1.4123837"
         ry="2.2373557" />
      <ellipse
         ry="1.6364019"
         rx="1.0330174"
         cy="127.05366"
         cx="69.201828"
         id="ellipse964"
         style="fill:#a9a9a9;fill-opacity:1;stroke-width:0.674129" />
    </g>
  </g>
  <g
     inkscape:groupmode="layer"
     id="layer3"
     inkscape:label="Calque 3"
     style="display:none;opacity:1"
     transform="translate(-124.94188,-109.31992)">
    <rect
       y="111.18241"
       x="127.5582"
       height="29.842924"
       width="29.842924"
       id="rect869"
       style="display:inline;opacity:1;fill:#e4e4e4;fill-opacity:1;stroke-width:1.095" />
    <g
       id="g892"
       transform="translate(28.465195,0.1049)">
      <path
         sodipodi:nodetypes="sssccssss"
         d="m 113.79423,124.89242 c -3.78617,0 -5.35331,0.4247 -6.485,5.1502 -0.2226,0.9295 -0.83255,1.5037 -0.83255,2.2483 0,0.1742 0.008,0.3361 0.0205,0.492 h 15.04807 c 0.004,-0.1393 0.007,-0.2847 0.007,-0.4384 0,-0.5952 -1.06183,-1.2551 -1.1579,-1.9762 -0.63524,-4.7673 -2.66429,-5.4759 -6.6,-5.4759 z"
         style="fill:#838383;fill-opacity:1;stroke-width:0.921697"
         id="path4802-1-1" />
      <ellipse
         ry="2.2373557"
         rx="1.4123837"
         cy="128.02972"
         cx="110.89092"
         id="path4809-3-5"
         style="fill:#a9a9a9;fill-opacity:1;stroke-width:0.921697" />
      <ellipse
         style="fill:#a9a9a9;fill-opacity:1;stroke-width:0.674129"
         id="path4809-1-5-0"
         cx="108.2606"
         cy="127.74116"
         rx="1.0330174"
         ry="1.6364019" />
    </g>
  </g>
  <g
     inkscape:groupmode="layer"
     id="layer4"
     inkscape:label="Calque 4"
     style="display:none;opacity:1"
     transform="translate(-124.94188,-109.31992)">
    <rect
       style="display:inline;opacity:1;fill:#e4e4e4;fill-opacity:1;stroke-width:1.095"
       id="rect872"
       width="29.842924"
       height="29.842924"
       x="127.5582"
       y="111.18241" />
    <g
       id="g897"
       transform="translate(13.11518,-0.0947)">
      <path
         sodipodi:nodetypes="sssccssss"
         d="m 132.50057,119.41462 c -3.78617,0 -6.15897,6.1021 -7.29066,10.8276 -0.2226,0.9295 -0.83255,1.5037 -0.83255,2.2483 0,0.1742 0.008,0.3361 0.0205,0.492 h 9.94674 c 0.004,-0.1393 0.007,-0.2847 0.007,-0.4384 0,-0.5952 -1.06183,-1.2551 -1.1579,-1.9762 -0.63522,-4.7673 3.24272,-11.1533 -0.69299,-11.1533 z"
         style="fill:#838383;fill-opacity:1;stroke-width:0.921697"
         id="path4802-1-8" />
      <ellipse
         ry="2.2373557"
         rx="1.4123837"
         cy="128.22919"
         cx="128.79161"
         id="path4809-3-35"
         style="fill:#a9a9a9;fill-opacity:1;stroke-width:0.921697" />
      <ellipse
         style="fill:#a9a9a9;fill-opacity:1;stroke-width:0.674129"
         id="path4809-1-5-6"
         cx="126.16128"
         cy="127.94062"
         rx="1.0330174"
         ry="1.6364019" />
    </g>
  </g>
  <g
     inkscape:groupmode="layer"
     id="layer5"
     inkscape:label="Calque 5"
     style="display:none;opacity:1;mix-blend-mode:normal"
     transform="translate(-124.94188,-109.31992)">
    <rect
       y="111.18241"
       x="127.5582"
       height="29.842924"
       width="29.842924"
       id="rect875"
       style="display:inline;opacity:1;fill:#e4e4e4;fill-opacity:1;stroke-width:1.095" />
    <g
       id="g902">
      <path
         id="path4802-1-8-4"
         style="fill:#838383;fill-opacity:1;stroke-width:0.921697"
         d="m 142.91422,119.31992 c -3.78617,0 -3.45744,6.1021 -4.58913,10.8276 -0.2226,0.9295 -0.83255,1.5037 -0.83255,2.2483 0,0.1742 0.008,0.3361 0.0205,0.492 h 9.94674 c 0.004,-0.1393 0.007,-0.2847 0.007,-0.4384 0,-0.5952 -1.06183,-1.2551 -1.1579,-1.9762 -0.63524,-4.7673 0.54117,-11.1533 -3.39454,-11.1533 z"
         sodipodi:nodetypes="sssccssss" />
      <ellipse
         style="fill:#a9a9a9;fill-opacity:1;stroke-width:0.921697"
         id="path4809-3-35-9"
         cx="141.90678"
         cy="128.13446"
         rx="1.4123837"
         ry="2.2373557" />
      <ellipse
         ry="1.6364019"
         rx="1.0330174"
         cy="127.84589"
         cx="139.27644"
         id="path4809-1-5-6-2"
         style="fill:#a9a9a9;fill-opacity:1;stroke-width:0.674129" />
    </g>
  </g>
</svg>
